// This file is generated automatically. All manually added changes will be removed when running the Converter.
// Map 001-3-0: Sewer warps
001-3-0,196,35,0	warp	#001-3-0_196_35	0,0,001-1,197,35
001-3-0,172,41,0	warp	#001-3-0_172_41	0,0,001-3-1,34,58
001-3-0,162,40,0	warp	#001-3-0_162_40	0,0,001-3-1,23,57
001-3-0,198,60,0	warp	#001-3-0_198_59	0,0,001-1,199,61
001-3-0,152,55,0	warp	#001-3-0_152_55	0,0,001-1,152,51
001-3-0,85,130,0	warp	#001-3-0_85_130	0,0,001-1,86,130
