// Evol scripts.
// Author:
//    Reid
// Description:
//    Kaylo is the Shield seller in Don's Blacksmith house on Artis.

001-2-27,27,28,0	script	Kaylo#001-2-27	NPC_KAYLO,{
    speech S_LAST_NEXT,
        lg("Hi customer! What do you want today?");

    switch (select (
        l("Let's make a trade."),
        l("What's wrong with your clothes?"),
        l("What is this place?"),
        l("See you.")))
    {
        case 1:
            closedialog;
            shop "Store#Shield001-2-27";
            close;
        case 2:
            speech S_FIRST_BLANK_LINE | S_LAST_NEXT,
                l("I used a card to improve my clothes."),
                l("There are two different kinds of cards, the first changes the style of your clothes, the second changes their stats."),
                l("You should discuss with Don and Calypsan if you want to learn more about it, they are masters on this area!");
            break;
        case 3:
            speech S_FIRST_BLANK_LINE | S_LAST_NEXT,
                l("You are in the Blacksmith's house, by Jove!"),
                l("Don is a renowned blacksmith throughout Andorra, it's crazy that you never heard of him.");
            break;
        case 4:
            break;
    }

    goodbye;
    close;

OnInit:
    .sex = G_MALE;
    .distance = 4;
    end;
}

